{
  "version": 820,
  "tenantid": "Nikita",
  "mobappid": 1011,
  "appName": "Nikita",
  "appDisplayName": "Nikita",
  "homeScreenTemplate": "<script>\r\n    MyCampusApp.rootScope.animatepage = function(currentstyle) {\r\n        $(\".app-body\").addClass(currentstyle);\r\n    }\r\n    var hideInterval = setInterval(function() {\r\n        var animatecss = $(\"#animatecss\");\r\n        if (!animatecss || animatecss.length <= 0) {\r\n            $.ajax({\r\n                url: \"https://raw.githubusercontent.com/daneden/animate.css/master/animate.css\",\r\n                dataType: \"text\",\r\n                success: function(data) {\r\n                    $(\"head\").append(\"<style id='animatecss'>\" + data + \"<\/style>\");\r\n                    clearInterval(hideInterval);\r\n                }\r\n            });\r\n        }\r\n    }, 2000);\r\n    if (!MyCampusApp.rootScope.cangelistadded) {\r\n        MyCampusApp.rootScope.$on(\"$routeChangeStart\", function(event, next, current) {\r\n            $(\".app-body\").attr(\"class\", \"app-body animated \");\r\n        });\r\n        MyCampusApp.rootScope.$on(\"$routeChangeSuccess\", function(event, next, current) {\r\n            currentstyle = \"bounceInRight\";\r\n            if (next.loadedTemplateUrl == \"partials/home.html\" && current.loadedTemplateUrl != \"partials/home.html\") {\r\n                currentstyle = \"bounceInLeft\";\r\n            } else if(current.loadedTemplateUrl != \"partials/home.html\") {\r\n                if (next.params.appid == current.params.appid && next.params.appid == next.params.pageid) {\r\n                    currentstyle = \"bounceInLeft\";\r\n                }\r\n              \tif (MyCampusApp.rootScope.ppage) {\r\n                \tif (MyCampusApp.rootScope.ppage.appid == next.params.appid && MyCampusApp.rootScope.ppage.pageid == next.params.pageid) {\r\n                    \tcurrentstyle = \"bounceInLeft\";\r\n                \t}\r\n                }\r\n            }\r\n            $(\".app-body\").addClass(currentstyle);\r\n            $(\".app-body\").addClass(\"animated\");\r\n            MyCampusApp.rootScope.cpage = next.params;\r\n            MyCampusApp.rootScope.ppage = current.params;\r\n        });\r\n        MyCampusApp.rootScope.cangelistadded = true;\r\n    }\r\n<\/script>",
  "middlewareServerUrl": null,
  "feedbackEmail": null,
  "backgroundurl": "Nikita/background.png",
  "brandingurl": "Nikita/branding.png",
  "customStyle": "#branding {\r\n  position:absolute !important;\r\n  bottom:40px;\r\n  left:0px !important;\r\n  right:0px !important;\r\n  width:50% !important;\r\n  margin:auto !important;\r\n}\r\nbody {\r\n   position:absolute;\r\n   width:100%;\r\n   height:100%;\r\n   background-size:100% 100% !important;\r\n}\r\n.icon {\r\n   width:56px !important;\r\n   height:56px !important;\r\n}\r\n.campuseai-Info {\r\n  color:white;\r\n}\r\n.dockicon:after {\r\n   bottom:0px !important;\r\n}\r\n\r\n.dockicon {\r\n   margin-bottom:25px !important;\r\n}\r\n\r\n\r\n.blockUI i{\r\n   color:white !important;\r\n}\r\n\r\n@media (min-width: 768px) { \r\n   #branding {\r\n      width:50% !important;\r\n      margin:auto;    \r\n   }\r\n   .icon {\r\n      width:102px !important;\r\n      height:102px !important;\r\n    }\r\n}\r\n\r\n.promptumenu_nav a.active {\r\n   background:#fff;\r\n   border-radius:50%;\r\n   width:10px;\r\n   height:10px;\r\n}\r\n\r\n.promptumenu_nav a {\r\n  background:#00162f;\r\n   border-radius:50%;\r\n   width:10px;\r\n   height:10px;\r\n}\r\n.promptumenu_window {\r\n   overflow:visible !important; \r\n}\r\n\r\n.promptumenu_nav {\r\nmargin-bottom:-3px;\r\n}\r\n\r\n.app-body {\r\n   padding-bottom:19px !important;\r\n}\r\n\r\n.blockUI {\r\n  margin:auto !important;\r\n  left:0px  !important;\r\n  right:0px !important;\r\n  width:auto !important;\r\n}\r\n\r\n#homedata .campuseai-Info {\r\n  width:76px !important;\r\n  margin-left:-10px;\r\n}\r\n@media (min-width : 320px) and (max-width : 480px) { \r\n   .icon { width:56px !important;\r\n     height:56px !important;\r\n   }\r\n   #homedata .campuseai-Info {\r\n     width:76px !important;\r\n     margin-left:-10px;\r\n   }\r\n}\r\n\r\n@media (min-width : 320px) and (max-width : 568px) { \r\n   .icon { width:63px !important;\r\n\t   height:63px !important;\r\n   }\r\n   #homedata .campuseai-Info {\r\n     width:83px !important;\r\n     margin-left:-10px;\r\n   }\r\n}\r\n\r\n#mainSidebar .list-group-item {\r\n  border-bottom:1px solid #000 !important;\r\n}\r\n\r\n#homedata .campuseai-Info {\r\n  font-weight:bold;\r\n  text-shadow:2px 2px 2px #000;\r\n}\r\n\r\n.navbar-absolute-bottom{display:none !important;}.navbar-app, .sidebar, #mainSidebar { background : #003366 !important; } .navbar-brand, .navbar-absolute-top .btn-navbar { color : #ffffff !important; } .navbar-absolute-bottom .navbar-inverse { background :  !important; } .navbar-absolute-bottom .navbar-inverse { color :  !important; } .app { background :  !important; } .campuseai-Info { color :  !important; } #mainSidebar .list-group-item { background :  !important; } #mainSidebar .list-group-item { color :  !important; } #mainSidebar .appgroup { background :  !important; } #mainSidebar .appgroup { color :  !important; } .btn-primary { background :  !important; } .btn-primary { color :  !important; } .btn-primary { border-color :  !important; } ",
  "authFunction": "function authFunction(uname, password, $http, $rootScope, success, error) {\r\n  alert (\"Tenant from Mycampus : \" + MyCampusApp.config.tenant);\r\n  alert (\"Tenant from Jstorage : \" + $.jStorage.get('tenant'));\r\n  $.jStorage.deleteKey('tenant');\r\n    var authSuccess = success;\r\n    var authError = error;\r\n    //Peoplesoft authentication\r\n    /*\r\n    var url = $rootScope.middlewareServerUrl + \"/services/ps/psholds\";\r\n    var data = {};\r\n    if (window.device) {\r\n        data = \"userId=\" + uname + \"&password=\" + password;\r\n    } else {\r\n        url = \"/websimulator/json?url=\" + url;\r\n        data = {\r\n            method: \"POST\",\r\n            body: \"userId=\" + uname + \"&password=\" + password\r\n        };\r\n    }\r\n    $.blockUI({\r\n        message: '<div style=\"margin: 2px; vertical-align: middle; display: inline-block\"><i class=\"icon-cog icon-spin icon-4x\"><\/i><h3>Authenticating<\/h3><\/div>'\r\n    });\r\n    alert(\"URL : \" + url);\r\n    $http.post(url, data).success(function (data, status, headers, config) {\r\n        success(data);\r\n        $.unblockUI();\r\n    }).error(function (data, status, headers, config) {\r\n        error(data);\r\n        $.unblockUI();\r\n    });\r\n*/\r\n    //Banner Authentication with CAS\r\n\r\n    /*var url = \"https://my.curry.edu/cas/v1/tickets/\";\r\n    var data = {};\r\n    if (window.device) {\r\n        data = \"username=\" + uname + \"&password=\" + password;\r\n    } else {\r\n        url = \"/websimulator/text?url=\" + url;\r\n        data = {\r\n            method: \"POST\",\r\n            body: \"username=\" + uname + \"&password=\" + password\r\n        };\r\n    }\r\n\r\n    $rootScope.generateST = function (tgt, service, callback) {\r\n        var data = {};\r\n        if (window.device) {\r\n            data = \"service=\" + service;\r\n        } else {\r\n            url = \"/websimulator/text?url=\" + \"https://my.curry.edu/cas/v1/tickets/\";\r\n            data = {\r\n                method: \"POST\",\r\n                body: \"service=\" + service\r\n            };\r\n        }\r\n\r\n        $.ajax({\r\n            url: url + tgt,\r\n            type: \"POST\",\r\n            async: true,\r\n            data: data,\r\n            error: function (response) {\r\n                alert(\"Error : \" + response);\r\n\r\n            },\r\n            success: function (data) {\r\n                //alert(\"Success : \" + data);\r\n                callback(data);\r\n            }\r\n        });\r\n\r\n    };\r\n\r\n    $.blockUI({\r\n        message: '<div style=\"margin: 2px; vertical-align: middle; display: inline-block\"><i class=\"icon-cog icon-spin icon-4x\"><\/i><h3>Authenticating<\/h3><\/div>'\r\n    });\r\n    $.ajax({\r\n        url: url,\r\n        type: \"POST\",\r\n        async: true,\r\n        data: data,\r\n        error: function (response) {\r\n            $.unblockUI();\r\n        },\r\n        success: function (data) {\r\n            //alert(\"Success : \" + data);\r\n            $.unblockUI();\r\n\r\n        },\r\n        complete: function (response, textStatus) {\r\n            //alert(\"complete : \" + response + \"  text status : \" + textStatus);\r\n            $.unblockUI();\r\n            if (textStatus == \"success\" && response.status == 201) {\r\n                var str = response.getResponseHeader('Location');\r\n                var tgtTicket = str.substr(str.lastIndexOf('/') + 1);\r\n                //generateST(tgtTicket);\r\n                success({\r\n                    \"ticket\": tgtTicket\r\n                });\r\n                $rootScope.$apply(function () {\r\n\r\n                    $rootScope.setRoute(\"/home\");\r\n\r\n                });\r\n\r\n\r\n            } else {\r\n                success({\r\n                    \"error\": \"Oops! Cannot log you in. Please check your login details.\"\r\n                });\r\n            }\r\n        }\r\n\r\n    });*/\r\n\r\n\r\n    //Banner Authentication with LDAP - middlware auth\r\n\r\n    var url = $rootScope.middlewareServerUrl + \"/bannermobile2/services/authenticate/login\";\r\n    var data = {};\r\n    if (window.device) {\r\n        data = \"username=\" + uname + \"&password=\" + password;\r\n    } else {\r\n        url = \"/websimulator/json?url=\" + url;\r\n        data = {\r\n            method: \"POST\",\r\n            body: \"username=\" + uname + \"&password=\" + password\r\n        };\r\n    }\r\n    var authUrl = url;\r\n    var authData = data;\r\n    $rootScope.generateST = function(tgt, service, callback) {\r\n        //Bypassing the ST as there is no service ticket required here..\r\n        callback(tgt);\r\n    };\r\n\r\n    $rootScope.postAPI = function(endpoint, postdata, callback) {\r\n        $.blockUI();\r\n        $rootScope.generateST($rootScope.ticket, endpoint, function(st) {\r\n            var serviceurl = endpoint + \"?ticket=\" + st;\r\n            var url = \"\";\r\n            var proxyMethod = \"POST\";\r\n            var proxyData = postdata;\r\n            if (window.device) {\r\n                url = serviceurl;\r\n            } else {\r\n                url = \"/websimulator/json?url=\" + serviceurl;\r\n                proxyMethod = \"POST\";\r\n                proxyData = {\r\n                    method: \"POST\",\r\n                    body: postdata\r\n                }\r\n            }\r\n            $http({\r\n                method: proxyMethod,\r\n                url: url,\r\n                data: proxyData\r\n            }).\r\n            success(function(data, status, headers, config) {\r\n                $.unblockUI();\r\n                callback(data, status, headers, config);\r\n            }).\r\n            error(function(data, status, headers, config) {\r\n                $.unblockUI();\r\n                //alert(\"Error in service call : \" + data + \" Status : \" + status);\r\n                if (status == 403) { //Ticket expired.. need to relogin\r\n                    $http.post(authUrl, authData).success(function(data, status, headers, config) {\r\n                        authSuccess(data);\r\n                        $rootScope.getAPI(endpoint, callback);\r\n                    }).error(function(data, status, headers, config) {\r\n                        authError(data);\r\n\r\n                    });\r\n                }\r\n\r\n            });\r\n\r\n        });\r\n\r\n    };\r\n\r\n    $rootScope.getAPI = function(endpoint, callback) {\r\n        $.blockUI();\r\n        $rootScope.generateST($rootScope.ticket, endpoint, function(st) {\r\n            var serviceurl = endpoint + \"?ticket=\" + st;\r\n            var url = \"\";\r\n            var proxyMethod = \"GET\";\r\n            var proxyData = {};\r\n            if (window.device) {\r\n                url = serviceurl;\r\n            } else {\r\n                url = \"/websimulator/json?url=\" + encodeURIComponent(serviceurl);\r\n                proxyMethod = \"POST\";\r\n                proxyData = {\r\n                    method: \"GET\"\r\n                }\r\n            }\r\n            $http({\r\n                method: proxyMethod,\r\n                url: url,\r\n                data: proxyData\r\n            }).\r\n            success(function(data, status, headers, config) {\r\n                $.unblockUI();\r\n                callback(data, status, headers, config);\r\n            }).\r\n            error(function(data, status, headers, config) {\r\n                $.unblockUI();\r\n                //alert(\"Error in service call : \" + data + \" Status : \" + status);\r\n                if (status == 403) { //Ticket expired.. need to relogin\r\n                    $http.post(authUrl, authData).success(function(data, status, headers, config) {\r\n                        authSuccess(data);\r\n                        $rootScope.getAPI(endpoint, callback);\r\n                    }).error(function(data, status, headers, config) {\r\n                        authError(data);\r\n\r\n                    });\r\n                }\r\n\r\n            });\r\n\r\n        });\r\n\r\n    };\r\n\r\n\r\n\r\n\r\n    $.blockUI({\r\n        message: '<div style=\"margin: 2px; vertical-align: middle; display: inline-block\"><i class=\"icon-cog icon-spin icon-4x\"><\/i><h3>Authenticating<\/h3><\/div>'\r\n    });\r\n\r\n    $http.post(url, data).success(function(data, status, headers, config) {\r\n        success(data);\r\n        $.unblockUI();\r\n    }).error(function(data, status, headers, config) {\r\n        error(data);\r\n        $.unblockUI();\r\n    });\r\n\r\n}",
  "forgotPasswordUrl": null,
  "reportissueEmail": null,
  "iconWidth": 70,
  "apps": 
  [
    {
      "id": 17813,
      "name": "staticpage3",
      "displayname": "static page",
      "logo": "Nikita/staticpage3.png",
      "logourl": "Nikita/staticpage3.png",
      "description": "static page",
      "appFeatureType": "Public",
      "roles": null,
      "showInDock": false,
      "showInHome": true,
      "networkrequired": true,
      "analytics": false,
      "pages": 
      [
        {
          "pageid": "staticpage3",
          "pageTemplate": "<div><\/div>",
          "pageprocessor": "function pageprocessorstaticpage3(pagedef, $scope, $routeParams, $compile, $http, $rootScope, $sce, $window, $location) {var data1 = $compile($(pagedef.datatemplate))($scope);$(\"#appContent\").append(data1);}",
          "datatemplate": "<style>\r\n  .background {\r\n    background-image: url(\"https://encrypted-tbn3.gstatic.com/images?q=tbn:ANd9GcSxKUmRGhNKFxqgISCluuVQ9ghSlSoQJ4wIEMudWnVForFq2Cuowg\");\r\n    background-repeat: no-repeat;\r\n    text-align: right;\r\n    color: #fff;\r\n    width: 100%;\r\n    background-size: 100% 100%;\r\n    padding: 10px;\r\n  }\r\n  \r\n  .container-fluid {\r\n    background-color: #fff;\r\n    text-align: left;\r\n    padding: 10px;\r\n  }\r\n  \r\n  .new {\r\n    background-color: #fff;\r\n    color: grey;\r\n    padding: 10px;\r\n  }\r\n  \r\n  img {\r\n    text-align: center;\r\n    width=100%;\r\n  }\r\n<\/style>\r\n\r\n\r\n<div class='background'>\r\n  <p style=\"font-size:25px\">Loreum Ipsum is\r\n  <\/p>\r\n\r\n  <p style=\"font-size:15px\">simply dummy text of the\r\n  <\/p>\r\n\r\n  <p style=\"font-size:15px\">texting and typesetting<\/p>.\r\n\r\n\r\n  <button type=\"button\" class=\"btn btn-info\">Sign-up now<\/button>\r\n<\/div>\r\n\r\n<div class=\"container-fluid\">\r\n  <div class=\"row\">\r\n    <div class=\"col-xs-4 col-md-4\" style=\"text-align: left;\">\r\n      <p><img src=\"https://cdn0.iconfinder.com/data/icons/back-to-school/90/circle-school-learn-study-subject-math-pencil-edit-512.png\" width=\"\" height=\"\">\r\n    <\/div>\r\n    <div class=\"col-xs-8 col-sm-8\">\r\n      <h1 style=\"color:Blue; font-size: 20px;\"><b>Contrary to popular<b><\/h>\r\n  <p style=\"color:Black; font-size: 10px;\">Loreum Ipsum is not simply random text. It has roots in a piece.<\/p>\r\n<\/div>\r\n<\/div>\r\n  <\/div>\r\n  <div class=\"container-fluid\">\r\n  <div class=\"row\">\r\n    <div class=\"col-xs-4 col-md-4\">\r\n      <p><img src=\"https://cdn3.iconfinder.com/data/icons/devices-16/504/Desktop-128.png\" width=\"\" height=\"\">\r\n    <\/div>\r\n    <div class=\"col-xs-8 col-md-8\">\r\n      <h1 style=\"color:Blue; font-size: 20px;\"><b>Contrary to popular<b><\/h>\r\n  <p style=\"color:Black; font-size: 10px;\">Loreum Ipsum is not simply random text. It has roots in a piece.<\/p>\r\n<\/div>\r\n<\/div>\r\n  <\/div>\r\n  <div class=\"container-fluid\">\r\n  <div class=\"row\">\r\n    <div class=\"col-xs-4 col-md-pull-4\">\r\n      <p><img src=\"https://cdn2.iconfinder.com/data/icons/icons-mega-pack-1-and-2/128/360_Desktop.png\" width=\"\" height=\"\">\r\n    <\/div>\r\n    <div class=\"col-xs-8 col-md-8\">\r\n      <h1 style=\"color:Blue; font-size: 20px;\"><b>Contrary to popular<b><\/h>\r\n  <p style=\"color:Black; font-size: 10px;\">Loreum Ipsum is not simply random text. It has roots in a piece.<\/p>\r\n<\/div>\r\n<\/div>\r\n  <\/div>\r\n  \r\n      <div class=\"new\">\r\n    <h3 style=\"text-align:center;\">The Shopping Cart<\/h3>\r\n      <div style=\"text-align: center;\">\r\n        <img src=\"http://www.psdgraphics.com/file/shopping-basket-icon.jpg\" style=\"width:150px;\">\r\n      <\/div>\r\n      <br>\r\n      <div style=\" text-align:left; \">\r\n        <h4>Some bullet text here<\/h4><\/div>\r\n\r\n      <p style=\" text-align:left; \"> Loreum Ipsum is a dummy text of printing and typesetting.Loreum Ipsum is a dummy text of printing and typesetting.Loreum Ipsum is a dummy text of printing and typesetting.<\/p>\r\n\r\n\r\n\r\n\r\n    <\/div>"
        }
      ]
    },
    {
      "id": 18208,
      "name": "Login",
      "displayname": "Login",
      "logo": "Nikita/Login.png",
      "logourl": "Nikita/Login.png",
      "description": "Login",
      "appFeatureType": "Public",
      "roles": null,
      "showInDock": false,
      "showInHome": true,
      "networkrequired": true,
      "analytics": false,
      "pages": 
      [
        {
          "pageid": "Login",
          "pageTemplate": "<div><\/div>",
          "pageprocessor": "function pageprocessorLogin(pagedef, $scope, $routeParams, $compile, $http, $rootScope, $sce, $window, $location) {var data1 = $compile($(pagedef.datatemplate))($scope);$(\"#appContent\").append(data1);}",
          "datatemplate": "<style>\r\n  .first {\r\n    background-color: #cc3300;\r\n    text-align: center;\r\n    color: #fff;\r\n    padding: 10px;\r\n  }\r\n  \r\n  .second {\r\n    background-image: url(\"https://encrypted-tbn0.gstatic.com/images?q=tbn:ANd9GcRJUqaxOaA_rO8HbxkUt1UBaNPwFt9OPi8Pn667u8xxwH6nfakT9w\");\r\n    background-repeat: no-repeat;\r\n    text-align: center;\r\n    color: black;\r\n    width: 100%;\r\n    background-size: 100% 100%;\r\n    padding: 10px;\r\n  }\r\n  \r\n  img {\r\n    text-align: center;\r\n  }\r\n  \r\n  .third {\r\n    color: #fff;\r\n    text-align: center;\r\n  }\r\n  \r\n  .textox {\r\n    margin: auto width: 165px;\r\n    height: 20px;\r\n    border: solid 1px #030303;\r\n    padding: 14px 1px 15px 20px;\r\n    border-radius: 5px;\r\n    font-size: 12px;\r\n    box-shadow: 0px 1px 2px 0px #9C9C9C;\r\n    background-color: #FFFFFF;\r\n    outline: none;\r\n    color: #474747;\r\n  }\r\n  \r\n  .textox:hover {\r\n    border: 2px solid #FF00D5;\r\n  }\r\n  \r\n  .textox:focus {\r\n    border: solid 2px #00D43C;\r\n    box-shadow: inset 0px 1px 2px 0px #9C9C9C;\r\n  }\r\n  \r\n  .textox:active {\r\n    border: solid 2px #0043EB;\r\n  }\r\n  \r\n  .button {\r\n    margin: auto;\r\n    background-color: yellow;\r\n    text-align: center;\r\n    font-size: 12px;\r\n    width: 172px;\r\n    border: solid 1px #030303;\r\n    padding: 10px 0 0 1px;\r\n    border-radius: 5px;\r\n  }\r\n<\/style>\r\n<div class=\"first\">\r\n  <h3>PROFILE<\/h3>\r\n<\/div>\r\n<div class=\"second\">\r\n  <img src=\"https://cdn2.iconfinder.com/data/icons/circle-icons-1/64/image-128.png\" style=\"width:150px;\">\r\n  <h4>Sarah Jang<\/h4>\r\n  <p><img src=\"https://cdn3.iconfinder.com/data/icons/social-1/100/facebook_places-128.png\" width=\"30px\" height=\"\">Thailand<\/p>\r\n<\/div>\r\n<br>\r\n<div class=\"third\">\r\n\r\n  <h3>Sign in to your account<\/h3>\r\n  <br>\r\n  <!--<div class=\"input-group\">\r\n    <span class=\"input-group-addon\" style=\"border:none;\"><span class=\"fa fa-envelope\"><\/span><\/span>\r\n    <form action=\"\">\r\n\r\n      <br>\r\n      <input name=\"loginUsername\" id=\"loginUsername\" type=\"text\" class=\"form-control\" class=\"textox\" placeholder=\"Username\" autocomplete=\"off\" autocorrect=\"off\" autocapitalize=\"off\" spellcheck=\"false\">\r\n\r\n      <br>\r\n      <br>\r\n\r\n      <input type=\"text\" data-icon: \"user\" placeholder=\"Password\" class=\"textox\">\r\n      <br>\r\n      <br>\r\n\r\n    <\/form>\r\n  <\/div>-->\r\n  <div style=\"padding:10px 30px;\">\r\n    <div class='list-group'>\r\n      <li class=\"list-group-item\">\r\n        <div class=\"input-group\">\r\n          <span class=\"input-group-addon\" style=\"border:none;\"><span class=\"fa fa-user\"><\/span><\/span>\r\n          <input name=\"loginUsername\" id=\"loginUsername\" type=\"text\" class=\"form-control\" ng-model=\"userID\" placeholder=\"Username\" autocomplete=\"off\" autocorrect=\"off\" autocapitalize=\"off\" spellcheck=\"false\" style=\"border:none;\">\r\n        <\/div>\r\n      <\/li>\r\n    <\/div>\r\n\r\n    <div class='list-group'>\r\n      <li class=\"list-group-item\">\r\n        <div class=\"input-group\">\r\n          <span class=\"input-group-addon\" style=\"border:none;\"><span class=\"fa fa-user\"><\/span><\/span>\r\n          <input name=\"loginUsername\" id=\"loginUsername\" type=\"password\" class=\"form-control\" ng-model=\"userID\" placeholder=\"Password\" autocomplete=\"off\" autocorrect=\"off\" autocapitalize=\"off\" spellcheck=\"false\" style=\"border:none;\">\r\n        <\/div>\r\n      <\/li>\r\n    <\/div>\r\n  <\/div>\r\n<\/div>\r\n\r\n\r\n\r\n\r\n<div class=\"button\">\r\n  <h4>Log in<\/h4>\r\n<\/div>\r\n"
        }
      ]
    },
    {
      "id": 18768,
      "name": "UserInfo",
      "displayname": "User Info",
      "logo": "Nikita/UserInfo.png",
      "logourl": "Nikita/UserInfo.png",
      "description": "User Info",
      "appFeatureType": "Public",
      "roles": null,
      "showInDock": false,
      "showInHome": true,
      "networkrequired": true,
      "analytics": false,
      "pages": 
      [
        {
          "pageid": "UserInfo",
          "pageTemplate": "<div><\/div>",
          "pageprocessor": "function pageprocessorUserInfo(pagedef, $scope, $routeParams, $compile, $http, $rootScope, $sce, $window, $location) {\r\n  var data1 = $compile($(pagedef.datatemplate))($scope);\r\n  $(\"#appContent\").append(data1);\r\n\r\n  var arr = [];\r\n  var text = \"\";\r\n\r\n  $scope.myfunction = function() {\r\n\r\n    var i, index;\r\n    var name1 = document.getElementById(\"id1\").value;\r\n    var standard1 = document.getElementById(\"id2\").value;\r\n    var section1 = document.getElementById(\"id3\").value;\r\n    var department1 = document.getElementById(\"id4\").value;\r\n\r\n    var persons = {\r\n      NAME: name1,\r\n      STANDARD: standard1,\r\n      SECTION: section1,\r\n      DEPARTMENT: department1\r\n    }\r\n\r\n    arr.push(persons);\r\n\r\n\r\n  }\r\n\r\n  $scope.myview = function() {\r\n    $location.path(\"/app/UserInfo/UserInfoPage2\");\r\n    $rootScope.records = arr;\r\n  }\r\n\r\n  $scope.mydel = function(i) {\r\n    alert(i);\r\n    arr.splice(i, 1);\r\n    $scope.records = arr;\r\n  }\r\n  $scope.modify = function(record) {\r\n\r\n    $scope.modifyRecord = true;\r\n    $scope.viewRecord = true;\r\n  }\r\n\r\n\r\n  $scope.update = function(record) {\r\n    $scope.modifyRecord = false;\r\n    $scope.viewRecord = false;\r\n  }\r\n  $scope.weather = function() {\r\n\r\n    $http.get(\"http://api.openweathermap.org/data/2.5/weather?lat=28.4601000&lon=77.0263500&appid=ba43514cffb6f7f86b8fa799f4da69b1\")\r\n      .then(function(response) {\r\n        $scope.myWeather = response.data.temp_min;\r\n      });\r\n  }\r\n}",
          "datatemplate": "<style>\r\n  .first {\r\n    background-color: #FF9900;\r\n    text-align: center;\r\n    color: black;\r\n    padding: 10px;\r\n  }\r\n  \r\n  .container {\r\n    color: black;\r\n    background-color: cyan;\r\n    padding: 10px;\r\n  }\r\n  \r\n  .button {\r\n    margin: auto;\r\n    background-color: #FF9900;\r\n    text-align: center;\r\n    font-size: 12px;\r\n    width: 172px;\r\n    border: solid 1px #030303;\r\n    padding: 10px;\r\n    border-radius: 5px;\r\n  }\r\n  \r\n  .submit {\r\n    margin: auto;\r\n    background-color: #FFA400;\r\n    text-align: center;\r\n    font-size: 12px;\r\n    width: 172px;\r\n    border: solid 1px #030303;\r\n    padding: 10px;\r\n    border-radius: 5px;\r\n  }\r\n  \r\n  .second {\r\n    margin: auto;\r\n    background-color: #FFA500;\r\n    color: red;\r\n    width: 100%;\r\n    text-align: center;\r\n  }\r\n  \r\n  .container-fluid {\r\n    color: black;\r\n    background-color: grey;\r\n    padding: 10px;\r\n  }\r\n  \r\n  table,\r\n  th,\r\n  td {\r\n    border: 1px solid grey;\r\n    border-collapse: collapse;\r\n    padding: 5px;\r\n    text-align: center;\r\n  }\r\n  \r\n  table tr:nth-child(odd) {\r\n    background-color: #C8C8C8;\r\n  }\r\n  \r\n  table tr:nth-child(even) {\r\n    background-color: #D8D8D8;\r\n  }\r\n  \r\n  .third {\r\n    background-color: cyan;\r\n    text-align: center;\r\n    text-color: black;\r\n  }\r\n<\/style>\r\n\r\n\r\n<div class=\"first\">\r\n  <h2>User Information<\/h2>\r\n  <h3 style=\"color: black\">Enter the following information<\/h3>\r\n\r\n<\/div>\r\n<div class=\"container\">\r\n\r\n  <form role=\"form\" name=\"myForm\" novalidate>\r\n    <div class=\"form-group\">\r\n      <label for=\"usr\">Name:<\/label>\r\n      <input id=\"id1\" type=\"text\" name=\"myName\" ng-model=\"myName\" class=\"form-control\" ng-pattern=\"/[a-zA-Z0-9^ ]/\" required />\r\n      <p ng-show=\"myForm.myName.$invalid && !myForm.myName.$pristine\" class=\"help-block\">Enter proper format <\/p>\r\n\r\n\r\n    <\/div>\r\n    <form role=\"form\" name=\"myForm1\" novalidate>\r\n      <div class=\"form-group\">\r\n        <label for=\"usr\">Standard:<\/label>\r\n        <input id=\"id2\" type=\"text\" name=\"myStandard\" ng-model=\"myStandard\" class=\"form-control\" id=\"usr\" ng-pattern=\"/[a-zA-Z0-9^ ]/\" required>\r\n        <span style=\"color:red\" ng-show=\"myForm1.myStandard.$dirty && myForm1.myStandard.$invalid>\r\n          <span ng-show=\" myForm1.myStandard.$error.required \">Standard is required<\/span>\r\n          <\/span>\r\n        \r\n      <\/div>\r\n      <form role=\"form \" name=\"myForm \" novalidate>\r\n        <div class=\"form-group \">\r\n          <label for=\"usr \">Section:<\/label>\r\n          <input id=\"id3 \" type=\"text \" name=\"mySection \" class=\"form-control \" id=\"usr \" ng-pattern=\"/[a-zA-Z0-9^ ]/ \" required/>\r\n          <p ng-show=\"myForm.mySection.$invalid && !myForm.mySection.$pristine \" class=\"help-block \">Your name is required.<\/p>\r\n        <\/div>\r\n        <form role=\"form \" name=\"myForm \" novalidate>\r\n          <div class=\"form-group \">\r\n            <label for=\"usr \">Department:<\/label>\r\n            <input id=\"id4 \" type=\"text \" name=\"myDepartment \" class=\"form-control \" id=\"usr \" ng-pattern=\"/[a-zA-Z0-9^ ]/ \" required/>\r\n            <p ng-show=\"myForm.myDepartment.$invalid && !myForm.myDepartment.$pristine \" class=\"help-block \">Your name is required.<\/p>\r\n          <\/div>\r\n\r\n          <div class=\"button \">\r\n            <button type=\"button \" class=\"btn btn-primary \" ng-click=\"myfunction() \">Add<\/button>\r\n\r\n            <button type=\"button \" class=\"btn btn-primary \" ng-click=\"myview() \">View<\/button>\r\n          <\/div>\r\n        <\/form>\r\n<\/div>\r\n<\/div>\r\n\r\n\r\n<div class=\"second \">\r\n  <hr>\r\n\r\n  <h4 id=\"demo \"><\/h4>\r\n\r\n<\/div>\r\n<div class=\"third \">\r\n  <h5><b>To know about the weather condition check on the \"Show \" button <\/b><\/h5>\r\n  <button type=\"button \" class=\"btn btn-primary \" ng-click=\"weather() \">Show<\/button>\r\n  <h1>{{myWeather}}<\/h1>\r\n\r\n<\/div>"
        },
        {
          "pageid": "UserInfoPage2",
          "pageTemplate": "<div><\/div>",
          "endpoint": "",
          "datatemplate": "<style>\r\n  table,\r\n  th,\r\n  td {\r\n    border: 1px solid grey;\r\n    border-collapse: collapse;\r\n    padding: 5px;\r\n    text-align: center;\r\n  }\r\n  \r\n  table tr:nth-child(odd) {\r\n    background-color: #C8C8C8;\r\n  }\r\n  \r\n  table tr:nth-child(even) {\r\n    background-color: #D8D8D8;\r\n  }\r\n<\/style>\r\n<div>\r\n  <table>\r\n    <thead>\r\n      <tr>\r\n        <th><b>Name<\/b><\/th>\r\n        <th><b>Standard<\/b><\/th>\r\n        <th><b>Section<\/b><\/th>\r\n        <th><b>Department<\/b><\/th>\r\n        <th><b>Button<\/b><\/th>\r\n      <\/tr>\r\n      <tbody>\r\n        <tr ng-repeat=\"record in records\">\r\n          <td>\r\n            <div ng-hide=\"viewRecord\">{{record.NAME }}<\/div>\r\n            <div ng-show=\"modifyRecord\">\r\n              <input type=\"text\" ng-model=\"record.NAME\" />\r\n            <\/div>\r\n          <\/td>\r\n          <td>\r\n            <div ng-hide=\"viewRecord\">{{record.STANDARD }}<\/div>\r\n            <div ng-show=\"modifyRecord\">\r\n              <input type=\"text\" ng-model=\"record.STANDARD\" />\r\n            <\/div>\r\n          <\/td>\r\n          <td>\r\n            <div ng-hide=\"viewRecord\">{{record.SECTION}}<\/div>\r\n            <div ng-show=\"modifyRecord\">\r\n              <input type=\"text\" ng-model=\"record.SECTION\" />\r\n            <\/div>\r\n          <\/td>\r\n          <td>\r\n            <div ng-hide=\"viewRecord\">{{record.DEPARTMENT | uppercase}}<\/div>\r\n            <div ng-show=\"modifyRecord\">\r\n              <input type=\"text\" ng-model=\"record.DEPARTMENT\" />\r\n            <\/div>\r\n          <\/td>\r\n          <td>\r\n            <button type=\"button\" class=\"btn btn-primary\" ng-click=\"mydel($index)\">Remove<\/button>\r\n            <button ng-hide=\"viewRecord\" ng-click=\"modify(record)\">Modify<\/button>\r\n            <button ng-show=\"modifyRecord\" ng-click=\"update(record)\">Update<\/button>\r\n          <\/td>\r\n\r\n        <\/tr>\r\n      <\/tbody>\r\n  <\/table>",
          "pageprocessor": "function pageprocessorUserInfoPage2(pagedef, $scope, $routeParams, $compile, $http, $rootScope, $sce, $window, $location) {\r\n  var data1 = $compile($(pagedef.datatemplate))($scope);\r\n  $(\"#appContent\").append(data1);\r\n  $scope.mydel = function(i) {\r\n    alert(i);\r\n    //arr.splice(i, 1);\r\n    //$scope.records = arr;\r\n    $rootScope.records.splice(i, 1);\r\n  }\r\n  $scope.modify = function(record) {\r\n\r\n    $scope.modifyRecord = true;\r\n    $scope.viewRecord = true;\r\n  }\r\n\r\n\r\n  $scope.update = function(record) {\r\n    $scope.modifyRecord = false;\r\n    $scope.viewRecord = false;\r\n  }\r\n\r\n}"
        }
      ]
    },
    {
      "id": 19142,
      "name": "Home4",
      "displayname": "Home",
      "logo": "Nikita/Home4.png",
      "logourl": "Nikita/Home4.png",
      "description": "Home",
      "appFeatureType": "Public",
      "roles": null,
      "showInDock": false,
      "showInHome": true,
      "networkrequired": true,
      "analytics": false,
      "pages": 
      [
        {
          "pageid": "Home4",
          "pageTemplate": "<div><\/div>",
          "pageprocessor": "function pageprocessorHome4(pagedef, $scope, $routeParams, $compile, $http, $rootScope, $sce, $window, $location) {\r\n  var data1 = $compile($(pagedef.datatemplate))($scope);\r\n  $(\"#appContent\").append(data1);\r\n}",
          "datatemplate": "<style>\r\n  .container-fluid {\r\n    width: 100%;\r\n    position: fixed;\r\n    margin: auto;\r\n    background-color: grey;\r\n    text-align: center;\r\n    padding: 0px;\r\n    color: white;\r\n  }\r\n  \r\n  footer {\r\n    margin: auto;\r\n    position: fixed;\r\n    width: 100%;\r\n    bottom: 0;\r\n  }\r\n  \r\n  .container {\r\n    width: 100%;\r\n    margin: auto;\r\n    background-color: grey;\r\n    text-align: center;\r\n    padding: 10px;\r\n    color: white;\r\n  }\r\n  \r\n  .first {\r\n    color: red;\r\n  }\r\n<\/style>\r\n\r\n\r\n<div class=\"container-fluid\">\r\n  <div class=\"row\">\r\n    <div class=\"col-xs-6 col-md-6\" style=\"border-style: solid; border-width: 0px 1px 0px 0px; padding: 10px; border-color: #615a5a;\">\r\n      <img src=\"https://kryptosda.kryptosmobile.com/kryptosds/imagegallery/31328b05-46e1-4d37-8133-4b2831dff63a.jpg\" style=\"width:20px;height:20px; \">\r\n      <a href=\"#\" style=\"opacity: 1; background-color: grey; width=100%; color: white; \" class=\"button\">Create Post<\/a>\r\n\r\n    <\/div>\r\n    <div class=\"col-xs-6 col-sm-6\" style=\"padding: 10px;\">\r\n      <img src=\"https://kryptosda.kryptosmobile.com/kryptosds/imagegallery/1ff4c1be-952a-4cef-a5cc-ae6b2591df6f.jpg\" style=\"width:20px;height:20px; \">\r\n      <a href=\"#\" style=\"opacity: 1; background-color: grey; width=100%; color: white\" class=\"button\">Categories<\/a>\r\n\r\n\r\n    <\/div>\r\n  <\/div>\r\n<\/div>\r\n<div class=\"first\">\r\n  <h1>Anu Agarwal <\/h1>\r\n  <h1>Anu Agarwal <\/h1>\r\n  <h1>Anu Agarwal <\/h1>\r\n  <h1>Anu Agarwal <\/h1>\r\n  <h1>Anu Agarwal <\/h1>\r\n  <h1>Anu Agarwal <\/h1>\r\n  <h1>Anu Agarwal <\/h1>\r\n  <h1>Anu Agarwal <\/h1>\r\n  <h1>Anu Agarwal <\/h1>\r\n  <h1>Anu Agarwal <\/h1>\r\n  <h1>Anu Agarwal <\/h1>\r\n  <h1>Anu Agarwal <\/h1>\r\n  <h1>Anu Agarwal <\/h1>\r\n  <h1>Anu Agarwal <\/h1>\r\n  <h1>Anu Agarwal <\/h1>\r\n  <h1>Anu Agarwal <\/h1>\r\n  <h1>Anu Agarwal <\/h1>\r\n  <h1>Anu Agarwal <\/h1>\r\n  <h1>Anu Agarwal <\/h1>\r\n  <h1>Anu Agarwal <\/h1>\r\n  <h1>Anu Agarwal <\/h1>\r\n  <h1>Anu Agarwal <\/h1>\r\n  <h1>Anu Agarwal <\/h1>\r\n  <h1>Anu Agarwal <\/h1>\r\n  <h1>Anu Agarwal <\/h1>\r\n  <h1>Anu Agarwal <\/h1>\r\n  <h1>Anu Agarwal <\/h1>\r\n  <h1>Anu Agarwal <\/h1>\r\n\r\n\r\n<\/div>\r\n<footer>\r\n  <div class=\"container\">\r\n    <div class=\"row\">\r\n      <div class=\"col-xs-2 col-md-2\">\r\n        <img src=\"https://kryptosda.kryptosmobile.com/kryptosds/imagegallery/c20aee0f-0c4e-4a6c-983b-0d2aca7643d2.jpg\" style=\"width:20px;height:20px; opacity: 0.8;\">\r\n        <a href=\"#\" style=\"opacity: 1; background-color: grey; width=100%; color: white\" class=\"button\">Home<\/a>\r\n\r\n\r\n      <\/div>\r\n\r\n      <div class=\"col-xs-3 col-md-3\">\r\n        <img src=\"https://kryptosda.kryptosmobile.com/kryptosds/imagegallery/e08183df-15d3-4f40-aaef-728f9050554c.jpg\" style=\"width:20px;height:20px; opacity: 0.8;\"><\/br>\r\n        <a href=\"#\" style=\"opacity: 1; background-color: grey; width=100%; color: #C8C8C8\" class=\"button\">Big Deal<\/a>\r\n\r\n      <\/div>\r\n\r\n      <div class=\"col-xs-2 col-md-2\">\r\n        <img src=\"https://kryptosda.kryptosmobile.com/kryptosds/imagegallery/333d03c3-38e9-4053-82ab-0bb6aebbb31d.jpg\" style=\"width:20px;height:20px; opacity: 0.8;\">\r\n        <a href=\"#\" style=\"opacity: 1; background-color: grey; width=100%; color: #C8C8C8\" class=\"button\">News<\/a>\r\n      <\/div>\r\n\r\n      <div class=\"col-xs-3 col-md-3\">\r\n        <img src=\"https://kryptosda.kryptosmobile.com/kryptosds/imagegallery/c920c7ba-f78b-4177-b587-1c150bbb9e46.jpg\" style=\"width:20px;height:20px; opacity: 0.8;\">\r\n        <a href=\"#\" style=\"opacity: 1; background-color: grey; width=100%; color: #C8C8C8\" class=\"button\">Directory<\/a>\r\n\r\n      <\/div>\r\n\r\n      <div class=\"col-xs-2 col-md-2\">\r\n        <img src=\"https://kryptosda.kryptosmobile.com/kryptosds/imagegallery/5cf136ff-12f8-4ed9-80dc-fd44e9d1d2f6.jpg\" style=\"width:20px;height:20px; opacity: 0.8;\">\r\n        <a href=\"#\" style=\"opacity: 1; background-color: grey; width=100%; color: #C8C8C8\" class=\"button\">Places<\/a>\r\n\r\n      <\/div>\r\n    <\/div>\r\n  <\/div>\r\n\r\n<\/footer>"
        }
      ]
    }
  ],
  "pages": 
  [
  ]
}